…
Other datasets:
[`acgme`](https://mufflyt.github.io/mysterycall/reference/acgme.md),
[`cityStateToLatLong`](https://mufflyt.github.io/mysterycall/reference/cityStateToLatLong.md),
[`fips`](https://mufflyt.github.io/mysterycall/reference/fips.md),
[`taxonomy`](https://mufflyt.github.io/mysterycall/reference/taxonomy.md)

## Examples

``` r
# Load the ACOG Districts Data
data(ACOG_Districts)

# Inspect the dataset
print(ACOG_Districts)
#> # A tibble: 52 × 4
#>    State                ACOG_District Subregion     State_Abbreviations
#>    <chr>                <chr>         <chr>         <chr>              
#>  1 Alabama              District VII  District VII  AL                 
#>  2 Alaska               District VIII District VIII AK                 
#>  3 Arizona              District VIII District VIII AZ                 
#>  4 Arkansas             District VII  District VII  AR                 
#>  5 California           District IX   District IX   CA                 
#>  6 Colorado             District VIII District VIII CO                 
#>  7 Connecticut          District I    District I    CT                 
#>  8 Delaware             District IV   District IV   DE                 
#>  9 District of Columbia District IV   District IV   DC                 
#> 10 Florida              District XII  District XII  FL                 
#> # ℹ 42 more rows
…
