ACGME OBGYN Residency Data — acgme • tyler
…
    Other datasets:
ACOG_Districts,
cityStateToLatLong,
fips,
taxonomy

    Examples

# Load the ACGME OBGYN Residency Data
data(acgme)

# Inspect the dataset
print(acgme)
#> # A tibble: 318 × 142
#>    program_name                 address zip   city  state sponsoring_instituti…¹
#>    <chr>                        <chr>   <chr> <chr> <chr> <chr>                 
#>  1 University of Alabama Medic… "Unive… 35249 Birm… Alab… 010498                
#>  2 USA Health Program           "Unive… 36604 Mobi… Alab… 010406                
#>  3 University of Arizona Colle… "Banne… 85006 Phoe… Ariz… 038179                
#>  4 University of Arizona Colle… "Unive… 85724 Tucs… Ariz… 030509                
#>  5 Creighton University School… "Creig… 85008 Phoe… Ariz… 309502                
#>  6 University of Arkansas for … "Unive… 72205 Litt… Arka… 049501                
#>  7 HCA Healthcare Riverside  P… "River… 92501 Rive… Cali… 059514                
#>  8 University of California Ri… "River… 92501 Rive… Cali… 059511                
#>  9 Arrowhead Regional Medical … "400 N… 92324 Colt… Cali… 050207                
#> 10 Marian Regional Medical Cen… "1400 … 93454 Sant… Cali… 059593                
#> # ℹ 308 more rows
#> # ℹ abbreviated name: ¹​sponsoring_institution_code
#> # ℹ 136 more variables: sponsoring_institution_name <chr>, phone <chr>,
#> #   original_accreditation_date <chr>, accreditation_status <chr>,
#> #   director_name <chr>, director_date_appointed <chr>,
#> #   coordinator_name_1 <chr>, coordinator_phone_1 <chr>,
#> #   coordinator_email_1 <chr>, participation_site_code_1 <chr>, …
…
